<?xml version="1.0" encoding="UTF-8"?>
<!DOCTYPE svg PUBLIC "-//W3C//DTD SVG 1.1//EN" "http://www.w3.org/Graphics/SVG/1.1/DTD/svg11.dtd">
<!-- Creator: CorelDRAW X7 -->
<svg xmlns="http://www.w3.org/2000/svg" xml:space="preserve" width="3000px" height="3000px" version="1.1" style="shape-rendering:geometricPrecision; text-rendering:geometricPrecision; image-rendering:optimizeQuality; fill-rule:evenodd; clip-rule:evenodd"
viewBox="0 0 3000 3000"
 xmlns:xlink="http://www.w3.org/1999/xlink"
 enable-background="new 0 0 595.3 648">
 <defs>
  <style type="text/css">
   <![CDATA[
    .fil0 {fill:none}
    .fil5 {fill:#FEFEFE}
    .fil2 {fill:#FFF000}
    .fil9 {fill:#F08519}
    .fil7 {fill:#E62129}
    .fil4 {fill:#00A2E9}
    .fil3 {fill:#009B4C}
    .fil1 {fill:#1D1819}
    .fil8 {fill:#332C2B;fill-rule:nonzero}
    .fil6 {fill:#1D1819;fill-rule:nonzero}
   ]]>
  </style>
 </defs>
 <g id="Layer_x0020_1">
  <metadata id="CorelCorpID_0Corel-Layer"/>
  <rect class="fil0" width="3000" height="3000"/>
  <g id="Kota_x0020_Bekasi.cdr">
   <path class="fil1" d="M808 100l1383 0 -1 9c-1,10 -2,19 -2,28 0,135 110,245 246,245 10,0 20,0 30,-2l10 -1 0 1312c0,153 -60,314 -143,440 -60,91 -138,172 -232,228 -179,108 -391,159 -600,159 -211,0 -427,-53 -609,-164 -93,-57 -170,-141 -229,-233 -80,-123 -136,-281 -136,-430l0 -1312 9 1c11,2 21,2 31,2 136,0 245,-110 245,-245 0,-9 0,-18 -1,-28l-1 -9z"/>
   <path class="fil2" d="M817 109l1364 0c-1,9 -1,18 -1,28 0,140 113,254 254,254 10,0 21,-1 31,-2l0 1302c0,234 -145,526 -370,661 -165,98 -372,157 -596,157l0 0c-228,0 -438,-61 -604,-162 -220,-135 -362,-425 -362,-656l0 -1302c11,1 21,2 32,2 140,0 254,-114 254,-254 0,-10 -1,-19 -2,-28z"/>
   <path class="fil1" d="M873 164l1252 0 1 8c16,144 132,258 276,273l8 0 0 1246c0,229 -147,496 -344,613 -169,102 -370,150 -567,150 -200,0 -404,-50 -575,-155 -193,-118 -335,-383 -335,-608l0 -1246 7 0c145,-15 260,-129 276,-273l1 -8z"/>
   <path class="fil3" d="M881 172c-17,149 -135,266 -284,281l0 1238c0,222 141,484 331,601 170,104 373,153 571,153 195,0 395,-47 563,-148 194,-116 339,-380 339,-606l0 -1238c-148,-15 -267,-132 -283,-281l-1237 0z"/>
   <path class="fil4" d="M597 1665l0 26c0,222 141,484 331,601 170,104 373,153 571,153 195,0 395,-47 563,-148 194,-116 339,-380 339,-606l0 -26 -1804 0z"/>
   <g>
    <g>
     <polygon class="fil5" points="1121,1102 822,1102 822,1135 1121,1135 "/>
     <path class="fil6" d="M1119 1105l-294 0 0 27 294 0 0 -27zm-297 -5l299 0 3 0 0 2 0 33 0 3 -3 0 -299 0 -3 0 0 -3 0 -33 0 -2 3 0z"/>
     <polygon class="fil5" points="1150,1102 972,1102 793,1102 972,1000 "/>
     <path class="fil6" d="M1150 1105l-178 0 -179 0 -1 -5 178 -102 2 -1 1 1 178 102 -1 5zm-178 -5l168 0 -168 -97 -169 97 169 0z"/>
     <polygon class="fil5" points="1096,1167 847,1167 847,1135 1096,1135 "/>
     <path class="fil6" d="M1096 1170l-249 0 -3 0 0 -3 0 -32 0 -3 3 0 249 0 3 0 0 3 0 32 0 3 -3 0zm-246 -5l244 0 0 -27 -244 0 0 27z"/>
     <polygon class="fil5" points="1073,1167 871,1167 871,1200 1073,1200 "/>
     <path class="fil6" d="M1070 1170l-197 0 0 27 197 0 0 -27zm-199 -5l202 0 2 0 0 2 0 33 0 2 -2 0 -202 0 -3 0 0 -2 0 -33 0 -2 3 0z"/>
     <polygon class="fil5" points="1057,1617 597,1617 597,1310 871,1200 1057,1200 "/>
     <polygon class="fil6" points="1057,1620 597,1620 597,1615 1055,1615 1055,1202 872,1202 597,1312 597,1307 870,1197 871,1197 1057,1197 1060,1197 1060,1200 1060,1617 1060,1620 "/>
     <polygon class="fil2" points="718,1565 751,1565 751,1287 718,1287 "/>
     <path class="fil6" d="M721 1562l28 0 0 -272 -28 0 0 272zm30 5l-33 0 -2 0 0 -2 0 -278 0 -2 2 0 33 0 3 0 0 2 0 278 0 2 -3 0z"/>
    </g>
    <g>
     <polygon class="fil5" points="1877,1102 2177,1102 2177,1135 1877,1135 "/>
     <path class="fil6" d="M1880 1105l294 0 0 27 -294 0 0 -27zm297 -5l-300 0 -2 0 0 2 0 33 0 3 2 0 300 0 2 0 0 -3 0 -33 0 -2 -2 0z"/>
     <polygon class="fil5" points="1849,1102 2027,1102 2206,1102 2027,1000 "/>
     <path class="fil6" d="M1849 1105l178 0 179 0 1 -5 -179 -102 -1 -1 -1 1 -179 102 2 5zm178 -5l-168 0 168 -97 169 97 -169 0z"/>
     <polygon class="fil5" points="1902,1167 2152,1167 2152,1135 1902,1135 "/>
     <path class="fil6" d="M1902 1170l250 0 2 0 0 -3 0 -32 0 -3 -2 0 -250 0 -2 0 0 3 0 32 0 3 2 0zm247 -5l-244 0 0 -27 244 0 0 27z"/>
     <polygon class="fil5" points="1926,1167 2128,1167 2128,1200 1926,1200 "/>
     <path class="fil6" d="M1929 1170l196 0 0 27 -196 0 0 -27zm199 -5l-202 0 -3 0 0 2 0 33 0 2 3 0 202 0 3 0 0 -2 0 -33 0 -2 -3 0z"/>
     <polygon class="fil5" points="1942,1617 2401,1617 2401,1309 2127,1200 1942,1200 "/>
     <polygon class="fil6" points="1942,1620 2401,1620 2401,1615 1944,1615 1944,1202 2127,1202 2401,1312 2401,1307 2128,1197 2127,1197 1942,1197 1939,1197 1939,1200 1939,1617 1939,1620 "/>
     <polygon class="fil2" points="2280,1565 2247,1565 2247,1287 2280,1287 "/>
     <path class="fil6" d="M2278 1562l-28 0 0 -272 28 0 0 272zm-31 5l33 0 3 0 0 -2 0 -278 0 -2 -3 0 -33 0 -2 0 0 2 0 278 0 2 2 0z"/>
    </g>
   </g>
   <path class="fil1" d="M1500 2509l-1 0 0 0c-228,0 -438,-61 -604,-162 -22,-14 -43,-29 -64,-45l-43 18 -8 4 -5 -8c-64,-90 -128,-181 -192,-271 -21,70 -43,140 -64,210l-2 7 -7 0c-73,10 -145,20 -218,30 92,123 184,247 276,370 21,14 43,18 68,12 22,-4 39,-14 59,-21l5 -2 5 4c199,153 470,227 717,242 26,2 52,3 78,3 26,0 52,-1 78,-3 247,-15 518,-89 717,-242l5 -4 5 2c20,7 37,17 59,21 25,6 47,2 68,-12 92,-123 184,-247 276,-370 -73,-10 -145,-20 -218,-30l-7 0 -2 -7c-21,-70 -43,-140 -64,-210 -64,90 -128,181 -192,271l-5 8 -8 -4 -43 -18c-21,16 -42,31 -64,45 -166,101 -376,162 -604,162l0 0 -1 0z"/>
   <path class="fil7" d="M572 2657c20,13 40,16 63,11 20,-4 39,-14 58,-21l9 -3 7 6c198,152 467,226 714,241 25,1 51,2 77,3 26,-1 52,-2 77,-3 247,-15 516,-89 714,-241l7 -6 9 3c19,7 38,17 58,21 23,5 43,2 63,-11 89,-120 179,-240 268,-360 -69,-10 -138,-19 -207,-28l-11 -2 -3 -10c-20,-66 -40,-132 -60,-198 -62,87 -123,174 -185,261l-8 11 -50 -21c-20,16 -41,31 -62,44 -182,111 -398,164 -609,164l-1 0 -1 0c-211,0 -427,-53 -609,-164 -21,-13 -42,-28 -62,-44l-50 21 -8 -11c-62,-87 -123,-174 -185,-261 -20,66 -40,132 -60,198l-3 10 -11 2c-69,9 -138,18 -207,28 89,120 179,240 268,360z"/>
   <path class="fil1" d="M601 2624c8,4 16,4 25,2 18,-3 36,-13 53,-19l31 -11 25 20c191,147 452,218 690,232 25,2 50,3 75,3 25,0 50,-1 75,-3 238,-14 499,-85 690,-232l25 -20 31 11c17,6 35,16 53,19 9,2 17,2 25,-2 73,-98 147,-196 220,-295 -45,-6 -90,-12 -136,-18l-38 -5 -11 -37c-11,-38 -23,-76 -35,-114 -44,63 -89,126 -134,190l-28 39 -59 -25c-15,11 -30,21 -46,31 -188,115 -412,170 -631,170l-1 0 -1 0c-219,0 -443,-55 -631,-170 -16,-10 -31,-20 -46,-31l-59 25 -28 -39c-45,-64 -90,-127 -134,-190 -12,38 -24,76 -35,114l-11 37 -38 5c-46,6 -91,12 -136,18 73,99 147,197 220,295z"/>
   <path class="fil5" d="M608 2616c5,1 10,1 16,0 17,-4 35,-14 52,-19l35 -13 30 23c190,146 449,216 685,231 24,1 49,2 74,2 25,0 50,-1 74,-2 236,-15 495,-85 685,-231l30 -23 35 13c17,5 35,15 52,19 6,1 11,1 16,0 69,-93 139,-186 208,-279 -40,-5 -79,-10 -118,-15l-45 -6 -13 -44c-9,-31 -19,-62 -29,-93 -40,57 -81,114 -121,172l-33 46 -61 -26c-14,10 -28,19 -43,28 -189,116 -415,172 -636,172l-1 0 -1 0c-221,0 -447,-56 -636,-172 -15,-9 -29,-18 -43,-28l-61 26 -33 -46c-40,-58 -81,-115 -121,-172 -10,31 -20,62 -29,93l-13 44 -45 6c-39,5 -78,10 -118,15 69,93 139,186 208,279z"/>
   <path class="fil1" d="M608 2561c20,22 44,12 58,7l34 -34 60 50c184,142 438,210 668,224 23,1 47,2 72,2 25,0 49,-1 72,-2 230,-14 484,-82 668,-224l60 -50 34 34c14,5 38,15 58,-7 56,-75 97,-126 153,-201 -22,-3 -44,-6 -67,-9l-64 -8 -18 -62c-4,-12 -8,-24 -11,-35 -29,40 -58,81 -87,122l-47 66 -68 -29c-10,7 -20,13 -30,20 -194,118 -421,178 -653,179 -232,-1 -459,-61 -653,-179 -10,-7 -20,-13 -30,-20l-68 29 -47 -66c-29,-41 -58,-82 -87,-122 -3,11 -7,23 -11,35l-18 62 -64 8c-23,3 -45,6 -67,9 56,75 97,126 153,201z"/>
   <path class="fil5" d="M613 2557c15,17 32,12 50,6l14 -15 -41 -49c-4,-8 -7,-18 10,-25l97 -38 -46 -64c-27,-38 -53,-75 -79,-112 -3,8 -5,15 -7,23l-20 65 -68 10c-19,2 -38,5 -57,7 49,65 99,127 147,192zm1774 0c-15,17 -32,12 -50,6l-14 -15 41 -49c4,-8 7,-18 -10,-25l-97 -38 46 -64c27,-38 53,-75 79,-112 3,8 5,15 7,23l20 65 68 10c19,2 38,5 57,7 -49,65 -99,127 -147,192zm-887 247c24,0 48,-1 72,-3 228,-14 481,-81 664,-222l64 -54c11,-11 16,-18 26,-29 13,-15 14,-19 -4,-27 -25,-9 -44,-17 -68,-27l-70 -30c-9,6 -18,12 -28,18 -248,137 -426,175 -656,179 -230,-4 -408,-42 -656,-179 -10,-6 -19,-12 -28,-18l-70 30c-24,10 -43,18 -68,27 -18,8 -17,12 -4,27 10,11 15,18 26,29l64 54c183,141 436,208 664,222 24,2 48,3 72,3z"/>
   <g>
    <path class="fil5" d="M1401 2039c-19,34 -55,56 -95,56 -40,0 -74,-21 -94,-53 -19,32 -54,53 -93,53 -41,0 -76,-22 -95,-56 -19,34 -55,56 -96,56 -39,0 -73,-21 -93,-53 -19,32 -54,53 -93,53 -4,0 -8,0 -12,0 -10,-15 -19,-30 -28,-45 12,2 26,3 40,3 37,0 70,-8 93,-28 23,20 56,28 93,28 39,0 73,-9 96,-30 22,21 57,30 95,30 37,0 70,-8 93,-28 23,20 56,28 94,28 38,0 72,-9 95,-30 23,21 57,30 95,30 37,0 71,-8 93,-28 23,20 57,28 94,28 38,0 72,-9 95,-30 23,21 57,30 95,30 37,0 71,-8 94,-28 22,20 56,28 93,28 38,0 72,-9 95,-30 23,21 57,30 95,30 17,0 33,-1 47,-5 -9,16 -18,31 -28,46 -6,1 -12,1 -19,1 -40,0 -76,-22 -95,-56 -19,34 -54,56 -95,56 -40,0 -74,-21 -93,-53 -20,32 -54,53 -94,53 -40,0 -76,-22 -95,-56 -19,34 -55,56 -95,56 -40,0 -74,-21 -94,-53 -19,32 -54,53 -93,53 -41,0 -76,-22 -95,-56z"/>
    <path class="fil5" d="M1401 2218c-19,33 -55,56 -95,56 -40,0 -74,-21 -94,-53 -19,32 -54,53 -93,53 -41,0 -76,-23 -95,-56 -19,33 -55,56 -96,56 -12,0 -25,-2 -36,-6 -23,-17 -45,-36 -66,-57 3,-2 6,-5 9,-7 23,19 56,28 93,28 39,0 73,-9 96,-30 22,21 57,30 95,30 37,0 70,-9 93,-28 23,19 56,28 94,28 38,0 72,-9 95,-30 23,21 57,30 95,30 37,0 71,-9 93,-28 23,19 57,28 94,28 38,0 72,-9 95,-30 23,21 57,30 95,30 37,0 71,-9 94,-28 22,19 56,28 93,28 38,0 72,-9 95,-30 5,4 10,8 15,11 -4,4 -7,7 -11,11 -1,-2 -3,-4 -4,-6 -19,33 -54,56 -95,56 -40,0 -74,-21 -93,-53 -20,32 -54,53 -94,53 -40,0 -76,-23 -95,-56 -19,33 -55,56 -95,56 -40,0 -74,-21 -94,-53 -19,32 -54,53 -93,53 -41,0 -76,-23 -95,-56z"/>
   </g>
   <path class="fil5" d="M1230 1801l35 0 0 152 -35 0 0 -152zm479 0l34 0 0 152 -34 0 0 -152zm-48 0l34 0 0 152 -34 0 0 -152zm-48 0l34 0 0 152 -34 0 0 -152zm-48 0l34 0 0 152 -34 0 0 -152zm-48 0l35 0 0 152 -35 0 0 -152zm-47 0l34 0 0 152 -34 0 0 -152zm-48 0l34 0 0 152 -34 0 0 -152zm-48 0l34 0 0 152 -34 0 0 -152zm-48 0l34 0 0 152 -34 0 0 -152zm-48 0l34 0 0 152 -34 0 0 -152z"/>
   <g>
    <polygon class="fil5" points="1233,1664 1766,1664 1935,1364 1502,1225 1064,1364 "/>
    <path class="fil8" d="M1234 1661l530 0 167 -296 -429 -137 -434 137 166 296zm532 5l-533 0 -2 0 -1 -1 -168 -300 -2 -3 3 -1 438 -138 2 0 433 138 3 1 -2 3 -169 300 0 1 -2 0z"/>
    <polygon class="fil5" points="1244,1637 1754,1637 1905,1354 1503,1225 1093,1354 "/>
    <path class="fil8" d="M1246 1635l506 0 150 -279 -399 -128 -406 128 149 279zm508 5l-510 0 -1 0 -1 -2 -151 -282 -2 -3 4 -1 409 -129 1 0 403 129 3 1 -1 2 -152 283 -1 2 -1 0z"/>
    <polygon class="fil5" points="1264,1607 1736,1607 1873,1345 1500,1225 1126,1344 "/>
    <path class="fil8" d="M1266 1604l469 0 134 -258 -369 -118 -371 117 137 259zm470 5l-472 0 -1 0 -1 -1 -139 -263 -1 -3 3 -1 374 -118 2 0 373 119 3 1 -1 3 -138 262 0 1 -2 0z"/>
   </g>
   <path class="fil6" d="M852 2611l53 -118 25 11 -23 53 74 -30 34 15 -68 25 18 94 -33 -14 -9 -71 -30 11 -15 35 -26 -11zm143 -7c5,-12 11,-22 17,-29 6,-5 12,-9 18,-12 7,-3 14,-5 21,-5 9,0 19,1 29,5 19,7 32,18 40,33 7,16 7,33 0,53 -7,19 -18,33 -34,40 -15,7 -32,7 -51,0 -19,-7 -32,-18 -39,-33 -8,-15 -8,-33 -1,-52zm27 9c-5,14 -5,25 -1,35 4,9 11,16 22,20 10,4 20,3 29,-1 9,-5 16,-14 21,-29 5,-13 6,-25 2,-34 -4,-9 -11,-16 -22,-20 -11,-4 -20,-3 -30,1 -9,5 -16,14 -21,28zm126 110l26 -105 -40 -9 6 -22 105 27 -5 21 -40 -10 -26 104 -26 -6zm192 36l-30 -5 -6 -31 -54 -10 -16 27 -29 -5 75 -118 28 5 32 137zm-41 -59l-11 -51 -26 44 37 7zm101 61l7 -129 44 3c17,0 28,2 33,3 8,3 14,7 19,14 5,7 7,15 6,25 0,8 -2,15 -5,20 -3,5 -8,9 -12,12 -5,3 -10,5 -15,6 -7,0 -16,1 -29,0l-18 -1 -2 49 -28 -2zm34 -106l-2 37 15 1c11,0 18,0 22,-1 3,-1 6,-3 8,-6 3,-3 4,-6 4,-10 0,-4 -1,-8 -4,-12 -2,-3 -6,-5 -10,-6 -4,-1 -10,-1 -20,-2l-13 -1zm202 104l-30 1 -13 -28 -55 2 -9 30 -29 2 46 -132 29 -1 61 126zm-53 -49l-21 -47 -16 49 37 -2zm84 45l-13 -106 -40 4 -3 -21 108 -13 3 21 -40 5 13 107 -28 3zm84 -10l-29 -126 57 -13c14,-3 25,-5 32,-4 6,1 13,4 18,9 5,4 8,11 10,18 2,9 1,18 -3,25 -5,8 -13,14 -24,18 7,2 12,4 17,7 5,3 11,9 20,17l22 21 -32 7 -26 -22c-9,-9 -15,-14 -18,-16 -4,-2 -7,-3 -10,-3 -3,0 -7,0 -14,2l-5 1 12 52 -27 7zm10 -79l20 -5c13,-3 21,-5 24,-7 3,-2 5,-4 6,-7 2,-3 2,-6 1,-10 -1,-4 -3,-7 -6,-9 -3,-2 -7,-3 -11,-3 -3,0 -9,2 -20,4l-21 5 7 32zm123 48l-36 -125 27 -7 36 124 -27 8zm25 -72c-4,-12 -6,-23 -6,-33 1,-7 3,-14 6,-21 3,-7 7,-13 12,-17 7,-7 15,-12 26,-16 19,-7 36,-7 51,0 16,6 27,19 35,39 7,19 7,37 1,52 -7,15 -20,27 -39,34 -19,7 -36,7 -51,1 -16,-7 -27,-20 -35,-39zm27 -11c5,14 12,23 22,27 9,5 19,5 29,1 10,-4 17,-11 21,-20 4,-10 3,-21 -2,-35 -5,-14 -13,-23 -22,-28 -9,-4 -18,-4 -29,0 -11,4 -18,11 -22,20 -3,10 -3,21 3,35zm166 -1l-46 -98 -36 18 -9 -20 98 -46 9 20 -37 17 46 97 -25 12z"/>
   <polygon class="fil1" points="1282,1508 1717,1508 1717,1564 1282,1564 "/>
   <polygon class="fil1" points="1692,1479 1692,1366 1307,1366 1307,1479 1294,1479 1282,1490 1717,1490 1707,1479 "/>
   <g>
    <path class="fil1" d="M1457 1345c0,-338 0,-677 0,-1015 7,-15 25,-29 42,-37 19,8 35,20 43,39l0 1013 -85 0z"/>
    <path class="fil5" d="M1464 1339l71 0c0,-335 0,-670 0,-1005 -24,22 -48,21 -71,-1l0 1006z"/>
    <g>
     <g>
      <path class="fil1" d="M1381 1345c0,-316 0,-633 0,-949 3,-19 31,-45 65,-56l0 1005 -65 0z"/>
      <path class="fil5" d="M1388 1339l51 0c0,-329 0,-657 0,-985 -10,28 -28,43 -51,45l0 940z"/>
     </g>
     <g>
      <path class="fil1" d="M1306 1345l0 -883c14,-35 41,-47 64,-56 0,5 0,9 0,14 0,306 0,612 0,919l0 6 -64 0z"/>
      <path class="fil5" d="M1312 1339l52 0c0,-307 0,-613 0,-919 -6,31 -24,46 -52,45l0 874z"/>
     </g>
    </g>
    <g>
     <g>
      <path class="fil1" d="M1617 1345c0,-316 0,-633 0,-949 -2,-19 -30,-45 -64,-56l0 1005 64 0z"/>
      <path class="fil5" d="M1611 1339l-52 0c0,-329 0,-657 0,-985 11,28 28,43 52,45l0 940z"/>
     </g>
     <g>
      <path class="fil1" d="M1693 1345l0 -883c-14,-35 -42,-47 -64,-56 0,5 0,9 0,14 0,306 0,612 0,919l0 6 64 0z"/>
      <path class="fil5" d="M1687 1339l-52 0c0,-307 0,-613 0,-919 6,31 23,46 52,45l0 874z"/>
     </g>
    </g>
   </g>
   <g>
    <path class="fil2" d="M1936 667c-36,-60 24,-101 30,-144 28,97 -16,108 -30,144z"/>
    <path class="fil6" d="M1933 669c-24,-41 -6,-74 12,-104 8,-14 16,-28 18,-42l6 0c21,72 2,97 -15,120 -6,8 -11,16 -15,25l-2 6 -4 -5zm17 -100c-16,26 -32,56 -14,91 3,-8 8,-14 13,-21 15,-20 32,-43 17,-103 -3,11 -10,22 -16,33z"/>
    <path class="fil2" d="M1958 707c-36,-60 24,-101 30,-143 36,94 -16,107 -30,143z"/>
    <path class="fil6" d="M1955 709c-25,-41 -6,-74 11,-103 9,-15 17,-29 19,-43l6 -1c27,71 6,97 -13,121 -7,8 -13,16 -17,26l-2 6 -4 -6zm17 -100c-16,27 -32,56 -14,91 4,-8 9,-14 15,-21 17,-21 36,-44 16,-104 -4,11 -10,22 -17,34z"/>
    <path class="fil2" d="M1994 754c-54,-63 15,-109 21,-152 36,95 -7,112 -21,152z"/>
    <path class="fil6" d="M1991 756c-38,-45 -16,-81 3,-114 8,-14 16,-27 18,-40l6 -1c28,72 10,101 -7,127 -5,9 -11,18 -14,27l-2 6 -4 -5zm8 -111c-17,30 -37,63 -6,103 3,-8 8,-16 13,-23 15,-24 31,-50 10,-112 -4,11 -10,21 -17,32z"/>
    <path class="fil2" d="M2018 796c-48,-88 28,-104 38,-145 32,74 -27,85 -38,145z"/>
    <path class="fil6" d="M2015 798c-34,-63 -8,-90 15,-114 10,-11 20,-22 23,-34l6 -1c20,48 5,71 -13,96 -10,14 -21,30 -25,52l-6 1zm19 -110c-20,22 -43,46 -18,99 6,-19 16,-33 25,-46 15,-22 29,-42 15,-81 -5,10 -13,19 -22,28z"/>
    <path class="fil2" d="M2038 836c-49,-91 29,-107 39,-150 33,76 -27,88 -39,150z"/>
    <path class="fil6" d="M2035 837c-34,-64 -8,-92 16,-117 10,-11 20,-22 23,-34l6 -1c21,49 5,72 -13,98 -10,15 -21,31 -26,53l-6 1zm20 -113c-21,23 -44,48 -18,102 6,-19 16,-33 25,-47 16,-23 30,-43 16,-84 -5,11 -14,20 -23,29z"/>
    <path class="fil2" d="M2061 877c-50,-92 29,-108 39,-151 34,76 -23,92 -39,151z"/>
    <path class="fil6" d="M2058 878c-35,-64 -8,-93 16,-118 10,-11 20,-22 23,-35l6 -1c23,52 5,77 -14,105 -9,14 -20,29 -25,49l-6 0zm20 -114c-21,23 -45,49 -18,104 6,-17 15,-30 24,-43 17,-25 33,-47 17,-90 -5,11 -14,20 -23,29z"/>
    <path class="fil2" d="M2089 924c-50,-92 25,-113 35,-156 36,82 -22,99 -35,156z"/>
    <path class="fil6" d="M2086 926c-35,-66 -10,-96 13,-124 10,-11 19,-22 22,-35l6 0c24,55 7,82 -12,110 -9,14 -19,29 -23,48l-6 1zm18 -119c-21,24 -44,52 -16,108 5,-16 14,-29 22,-41 17,-26 32,-50 15,-97 -5,11 -13,20 -21,30z"/>
    <path class="fil2" d="M2102 962c-37,-98 43,-104 58,-145 24,80 -38,84 -58,145z"/>
    <path class="fil6" d="M2099 963c-26,-69 4,-93 30,-116 12,-10 23,-19 28,-32l6 1c15,51 -4,73 -25,96 -12,14 -25,29 -33,51l-6 0zm34 -111c-24,20 -50,42 -31,100 8,-18 20,-32 31,-44 19,-21 36,-40 26,-82 -6,10 -16,18 -26,26z"/>
    <path class="fil2" d="M2112 1002c-38,-97 43,-98 59,-139 27,88 -40,101 -59,139z"/>
    <path class="fil6" d="M2109 1004c-26,-68 3,-91 30,-111 13,-10 24,-19 29,-31l6 0c20,64 -8,89 -34,112 -10,10 -20,19 -25,30l-4 6 -2 -6zm34 -106c-24,18 -51,38 -30,97 6,-9 14,-17 23,-25 23,-21 48,-44 34,-98 -6,10 -16,18 -27,26z"/>
    <path class="fil2" d="M2124 1051c-38,-97 56,-97 71,-139 28,89 -52,101 -71,139z"/>
    <path class="fil6" d="M2121 1052c-26,-67 8,-89 38,-109 15,-10 28,-19 33,-32l6 0c20,63 -13,89 -41,111 -13,10 -25,19 -31,30l-3 7 -2 -7zm42 -104c-28,18 -58,38 -39,96 7,-10 18,-18 29,-27 25,-20 54,-43 41,-96 -7,11 -19,19 -31,27z"/>
    <path class="fil2" d="M2131 1099c-38,-97 63,-100 78,-141 28,89 -59,102 -78,141z"/>
    <path class="fil6" d="M2128 1100c-26,-67 11,-90 43,-111 16,-10 30,-19 35,-32l6 0c20,62 -15,89 -46,112 -14,10 -26,20 -32,31l-3 7 -3 -7zm47 -106c-30,19 -63,40 -43,98 7,-11 18,-19 30,-28 28,-21 59,-45 46,-98 -7,11 -20,20 -33,28z"/>
    <path class="fil2" d="M2132 1141c-26,-101 80,-97 101,-136 19,123 -75,113 -101,136z"/>
    <path class="fil6" d="M2129 1142c-18,-70 24,-91 61,-110 17,-8 33,-16 40,-29l6 1c15,95 -36,113 -74,126 -12,4 -22,8 -28,13l-4 4 -1 -5zm64 -104c-34,17 -73,36 -59,97 7,-4 16,-7 26,-11 34,-12 81,-28 71,-111 -9,10 -23,17 -38,25z"/>
    <path class="fil2" d="M2143 1191c-27,-101 80,-96 100,-136 13,97 -75,113 -100,136z"/>
    <path class="fil6" d="M2140 1192c-18,-70 24,-91 60,-109 18,-9 34,-17 40,-29l6 1c10,76 -41,104 -76,123 -11,6 -20,11 -25,16l-4 3 -1 -5zm63 -103c-33,16 -72,36 -58,97 5,-5 13,-9 22,-13 32,-18 79,-43 74,-109 -9,10 -23,17 -38,25z"/>
    <path class="fil2" d="M2141 1235c-20,-102 93,-86 115,-124 11,104 -88,103 -115,124z"/>
    <path class="fil6" d="M2138 1236c-14,-70 32,-87 71,-101 20,-7 38,-13 45,-25l6 1c8,80 -48,100 -87,113 -13,5 -24,9 -30,14l-4 3 -1 -5zm73 -95c-36,13 -77,28 -68,89 7,-4 17,-8 28,-12 36,-12 86,-30 83,-98 -10,9 -26,15 -43,21z"/>
    <path class="fil2" d="M2144 1284c-20,-102 93,-86 116,-124 12,125 -89,103 -116,124z"/>
    <path class="fil6" d="M2141 1285c-13,-70 32,-87 72,-101 19,-7 37,-13 44,-25l6 1c9,95 -46,107 -86,116 -13,3 -24,6 -31,11l-4 3 -1 -5zm74 -95c-36,13 -78,28 -68,89 7,-4 17,-6 29,-9 37,-8 86,-19 81,-101 -9,9 -25,15 -42,21z"/>
    <path class="fil2" d="M2140 1332c-20,-103 103,-73 126,-111 3,108 -99,89 -126,111z"/>
    <path class="fil6" d="M2137 1332c-13,-69 35,-80 77,-90 21,-5 41,-10 49,-22l6 1c2,81 -52,93 -93,102 -14,3 -27,6 -34,11l-4 3 -1 -5zm78 -84c-38,9 -81,19 -72,78 8,-4 19,-7 32,-10 37,-8 86,-18 87,-86 -10,9 -28,14 -47,18z"/>
    <path class="fil2" d="M2122 1385c-5,-106 126,-58 147,-108 -7,119 -120,87 -147,108z"/>
    <path class="fil6" d="M2119 1386c-3,-68 45,-76 88,-83 27,-5 51,-9 59,-27l6 2c-5,87 -67,95 -111,101 -16,2 -30,3 -37,9l-5 4 0 -6zm89 -77c-39,7 -83,14 -83,71 9,-4 21,-6 35,-8 40,-5 95,-12 104,-83 -12,12 -33,16 -56,20z"/>
    <path class="fil2" d="M2116 1437c-5,-107 127,-62 148,-101 -8,84 -110,104 -148,101z"/>
    <path class="fil6" d="M2113 1437c-3,-70 50,-77 95,-83 24,-4 46,-7 53,-20l6 2c-3,35 -22,59 -45,75 -36,24 -83,31 -106,29l-3 0 0 -3zm96 -77c-42,5 -91,12 -90,74 24,1 66,-6 99,-28 20,-14 36,-33 41,-60 -11,9 -30,11 -50,14z"/>
    <path class="fil2" d="M2112 1478c3,-105 129,-51 153,-88 -15,83 -116,94 -153,88z"/>
    <path class="fil6" d="M2108 1478c3,-70 56,-72 100,-75 24,-1 46,-2 54,-14l6 2c-6,34 -26,56 -51,70l0 0c-37,21 -83,24 -106,20l-3 -1 0 -2zm100 -68c-41,2 -90,4 -93,65 23,3 65,0 99,-19l0 0c20,-12 38,-30 45,-56 -12,7 -30,8 -51,10z"/>
    <path class="fil2" d="M2083 1544c4,-110 135,-54 160,-92 -15,86 -121,98 -160,92z"/>
    <path class="fil6" d="M2080 1543c2,-72 57,-75 104,-77 26,-2 48,-3 57,-16l5 3c-6,35 -27,58 -53,73l0 0c-38,22 -87,25 -110,21l-3 -1 0 -3zm104 -71c-43,2 -94,5 -98,69 24,3 69,0 104,-21l0 0c22,-12 40,-31 48,-58 -12,8 -32,9 -54,10z"/>
    <path class="fil2" d="M2053 1599c21,-102 151,-42 179,-78 -21,85 -141,88 -179,78z"/>
    <path class="fil6" d="M2050 1599c14,-67 71,-68 120,-68 27,0 50,0 60,-12l5 3c-9,34 -33,56 -62,68 -44,19 -98,18 -121,13l-3 -1 1 -3zm120 -61c-45,0 -99,0 -114,59 25,5 74,5 114,-13 25,-10 46,-27 56,-54 -13,8 -34,8 -56,8z"/>
    <path class="fil2" d="M2029 1650c24,-102 152,-38 181,-74 -24,84 -143,85 -181,74z"/>
    <path class="fil6" d="M2025 1650c16,-67 74,-66 122,-65 27,1 51,1 61,-11l5 3c-10,34 -35,55 -64,67 -44,18 -98,16 -121,9l-3 -1 0 -2zm122 -59c-45,-1 -99,-2 -115,57 24,5 74,7 115,-10 24,-10 46,-26 56,-53 -13,7 -33,7 -56,6z"/>
    <path class="fil2" d="M1987 1705c29,-101 174,-33 204,-67 -27,83 -167,79 -204,67z"/>
    <path class="fil6" d="M1984 1705c19,-66 84,-63 138,-61 30,2 56,3 67,-8l5 3c-11,34 -40,53 -73,64 -51,17 -112,13 -135,5l-3 0 1 -3zm138 -54c-51,-3 -113,-6 -131,52 24,7 81,10 128,-6 28,-9 53,-25 65,-50 -14,6 -37,5 -62,4z"/>
    <path class="fil2" d="M1939 1746c54,-70 158,-19 223,-36 -122,94 -162,33 -223,36z"/>
    <path class="fil6" d="M1936 1744c36,-46 92,-41 145,-36 29,2 58,5 80,-1l3 5c-89,69 -135,56 -177,45 -16,-4 -31,-9 -48,-8l-7 1 4 -6zm145 -30c-50,-4 -101,-9 -135,29 15,0 29,4 43,8 39,10 81,21 160,-35 -21,2 -44,0 -68,-2z"/>
   </g>
   <g>
    <path class="fil2" d="M1926 656c10,-73 -69,-79 -96,-127 13,129 62,91 96,127z"/>
    <path class="fil6" d="M1924 649c2,-39 -24,-57 -51,-76 -14,-9 -28,-19 -38,-32 9,76 34,84 58,93 11,3 21,7 31,15zm-47 -81c29,21 59,41 52,89l0 0c0,0 0,1 -1,2 -1,1 -3,1 -4,-1 -10,-10 -22,-14 -33,-18 -28,-10 -55,-19 -64,-110l0 0c0,-2 0,-3 1,-3 2,-1 4,-1 5,1 10,17 27,29 44,40z"/>
    <path class="fil2" d="M1949 672c-38,-63 -110,-29 -160,-49 90,93 111,42 160,49z"/>
    <path class="fil6" d="M1942 669c-23,-34 -59,-35 -94,-35 -16,0 -33,0 -48,-4 56,55 83,49 110,43 10,-3 20,-5 32,-4zm-94 -41c39,0 78,0 103,43l0 0c1,0 1,1 1,2 -1,2 -2,3 -4,3 -13,-3 -25,0 -37,3 -30,7 -60,14 -125,-54l0 0c-1,-1 -1,-2 0,-3 0,-2 2,-3 4,-2 17,7 38,7 58,8z"/>
    <path class="fil2" d="M1970 704c-41,-62 -121,-24 -172,-42 94,89 122,37 172,42z"/>
    <path class="fil6" d="M1963 700c-25,-32 -64,-31 -102,-30 -18,1 -35,1 -51,-2 59,53 90,45 120,38 11,-3 22,-6 33,-6zm-102 -36c41,-2 85,-3 111,38 1,1 1,2 1,2 0,2 -2,3 -3,3 -14,-1 -26,2 -39,5 -32,8 -67,17 -135,-48 -1,0 -1,-2 -1,-3 1,-2 2,-2 4,-2 18,6 40,6 62,5z"/>
    <path class="fil2" d="M1992 740c-40,-62 -112,-18 -163,-36 94,89 114,30 163,36z"/>
    <path class="fil6" d="M1986 736c-25,-32 -60,-29 -94,-26 -18,1 -35,3 -51,0 58,52 85,43 111,34 11,-4 21,-8 34,-8zm-95 -32c38,-3 77,-6 104,34 0,1 0,1 0,2 0,2 -2,3 -3,3 -14,-1 -26,3 -38,7 -30,10 -60,20 -127,-44 -1,-1 -1,-2 -1,-3 1,-2 2,-3 4,-2 18,6 40,4 61,3z"/>
    <path class="fil2" d="M2020 780c-40,-61 -111,-18 -163,-36 95,89 114,31 163,36z"/>
    <path class="fil6" d="M2014 777c-24,-32 -59,-29 -94,-26 -18,1 -35,2 -51,-1 58,52 85,43 111,34 11,-4 22,-7 34,-7zm-95 -33c39,-3 78,-6 104,35 1,0 1,1 1,2 -1,2 -2,3 -4,3 -14,-2 -26,2 -38,6 -29,10 -59,20 -127,-43 -1,-1 -1,-3 -1,-4 1,-1 3,-2 5,-2 18,7 39,5 60,3z"/>
    <path class="fil2" d="M2043 821c-41,-64 -114,-19 -167,-38 97,92 117,32 167,38z"/>
    <path class="fil6" d="M2037 817c-25,-33 -61,-30 -97,-27 -18,1 -35,3 -52,0 59,53 87,43 114,34 11,-3 22,-7 35,-7zm-97 -34c39,-3 79,-6 106,36 0,0 1,1 0,2 0,2 -1,3 -3,3 -15,-2 -27,2 -39,6 -30,11 -61,21 -130,-44 -1,-1 -1,-2 -1,-4 1,-1 3,-2 4,-2 19,7 41,5 63,3z"/>
    <path class="fil2" d="M2064 867c-43,-65 -113,-19 -168,-38 100,95 116,32 168,38z"/>
    <path class="fil6" d="M2058 864c-26,-35 -61,-32 -97,-28 -18,1 -36,3 -53,-1 61,56 88,46 114,36 11,-4 22,-8 36,-7zm-97 -35c39,-3 78,-7 106,36 0,1 0,2 0,3 0,1 -2,3 -3,2 -15,-1 -28,3 -40,7 -29,11 -59,22 -130,-46 -1,0 -1,-2 -1,-3 1,-2 3,-2 4,-2 20,7 42,5 64,3z"/>
    <path class="fil2" d="M2079 915c-42,-66 -113,-20 -167,-40 98,96 115,34 167,40z"/>
    <path class="fil6" d="M2073 912c-25,-35 -61,-32 -96,-30 -18,2 -36,3 -54,0 61,55 88,46 114,37 11,-4 22,-8 36,-7zm-97 -36c39,-3 78,-6 106,37 0,1 1,2 0,3 0,1 -1,3 -3,3 -15,-2 -27,2 -40,6 -29,10 -59,21 -129,-48 -1,0 -1,-2 -1,-3 1,-2 2,-3 4,-2 19,7 41,6 63,4z"/>
    <path class="fil2" d="M2096 966c-38,-69 -112,-27 -165,-50 93,101 113,40 165,50z"/>
    <path class="fil6" d="M2090 962c-24,-36 -59,-36 -95,-35 -18,0 -36,1 -53,-4 57,59 85,52 112,44 11,-3 22,-6 36,-5zm-95 -41c39,-1 78,-2 104,43l0 0c0,1 0,1 0,2 0,2 -2,3 -4,3 -15,-3 -27,1 -40,4 -30,9 -60,17 -126,-55l0 0c-1,-1 -1,-2 -1,-3 1,-2 3,-2 4,-2 19,8 41,8 63,8z"/>
    <path class="fil2" d="M2111 1020c-34,-71 -110,-35 -161,-61 86,107 110,48 161,61z"/>
    <path class="fil6" d="M2105 1015c-21,-37 -56,-39 -92,-41 -18,-1 -36,-2 -53,-7 54,63 81,57 109,51 11,-2 23,-5 36,-3zm-91 -47c39,2 78,4 100,50 0,1 0,2 0,2 0,2 -2,3 -4,3 -15,-4 -27,-1 -40,1 -31,7 -61,13 -122,-63 -1,-1 -2,-2 -1,-3 1,-2 3,-2 4,-2 19,10 41,11 63,12z"/>
    <path class="fil2" d="M2116 1052c-30,-64 -98,-31 -144,-54 77,95 98,42 144,54z"/>
    <path class="fil6" d="M2110 1047c-19,-32 -50,-34 -81,-35 -16,-1 -32,-2 -47,-7 47,55 72,50 96,45 10,-2 20,-4 32,-3zm-81 -42c35,2 70,4 89,45 1,1 1,2 1,2 -1,2 -2,3 -4,3 -13,-4 -25,-1 -36,1 -27,6 -55,12 -109,-56 -1,-1 -2,-2 -1,-4 1,-1 3,-2 4,-1 17,8 36,9 56,10z"/>
    <path class="fil2" d="M2133 1090c-36,-65 -107,-26 -157,-48 88,98 108,39 157,48z"/>
    <path class="fil6" d="M2127 1086c-22,-34 -56,-34 -90,-33 -17,0 -34,0 -50,-4 54,57 80,50 106,42 11,-3 22,-6 34,-5zm-90 -39c38,-1 75,-1 99,42 1,0 1,1 1,2 -1,2 -2,3 -4,3 -14,-3 -26,0 -38,3 -29,9 -59,17 -122,-53l0 0c0,-1 -1,-2 0,-3 0,-2 2,-3 4,-2 18,8 39,8 60,8z"/>
    <path class="fil2" d="M2129 1130c-35,-61 -101,-22 -149,-41 86,89 103,34 149,41z"/>
    <path class="fil6" d="M2123 1126c-22,-31 -53,-30 -85,-28 -16,0 -32,1 -47,-2 53,51 76,43 100,36 10,-3 20,-6 32,-6zm-85 -35c35,-1 71,-3 94,37l0 0c0,1 1,2 0,2 0,2 -1,3 -3,3 -14,-2 -25,1 -36,5 -27,8 -54,17 -115,-47l0 0c-1,-1 -1,-2 -1,-3 1,-2 3,-3 4,-2 17,7 37,6 57,5z"/>
    <path class="fil2" d="M2136 1173c-36,-61 -101,-22 -149,-41 84,97 101,39 149,41z"/>
    <path class="fil6" d="M2131 1170c-22,-32 -54,-31 -86,-29 -16,0 -33,1 -48,-2 53,58 77,49 102,39 10,-4 20,-8 32,-8zm-86 -36c35,-1 70,-3 94,37l0 0c0,1 0,1 0,2 0,2 -1,3 -3,3 -13,0 -24,4 -34,8 -29,11 -56,21 -117,-50l0 0c-1,-1 -1,-2 -1,-3 1,-2 3,-2 4,-2 17,7 37,6 57,5z"/>
    <path class="fil2" d="M2136 1224c-32,-71 -99,-35 -147,-48 82,93 101,38 147,48z"/>
    <path class="fil6" d="M2131 1220c-22,-41 -58,-40 -93,-38 -14,1 -27,1 -40,-1 51,56 76,49 100,43 10,-3 21,-6 33,-4zm-93 -44c38,-2 78,-4 101,46 0,1 1,2 0,2 0,2 -2,3 -3,3 -14,-3 -25,0 -36,3 -28,7 -55,14 -113,-51 -1,-1 -1,-2 -1,-3 0,-2 2,-3 4,-3 14,4 31,3 48,3z"/>
    <path class="fil2" d="M2140 1285c-29,-72 -97,-40 -145,-55 77,97 99,43 145,55z"/>
    <path class="fil6" d="M2135 1280c-20,-41 -56,-42 -91,-42 -14,0 -27,0 -40,-2 48,57 73,52 98,47 10,-2 21,-4 33,-3zm-91 -48c39,0 78,0 99,51 0,1 0,2 0,3 0,1 -2,2 -4,2 -13,-3 -24,-1 -36,1 -28,6 -55,12 -110,-57 -1,-1 -1,-2 -1,-3 1,-2 3,-3 4,-2 15,5 31,5 48,5z"/>
    <path class="fil2" d="M2127 1332c-24,-74 -94,-46 -141,-64 71,101 96,49 141,64z"/>
    <path class="fil6" d="M2122 1327c-17,-43 -53,-45 -88,-48 -13,-1 -27,-2 -40,-5 45,61 70,57 95,54 11,-2 21,-3 33,-1zm-87 -54c38,3 78,5 95,58 0,1 0,1 0,2 -1,2 -2,3 -4,2 -13,-4 -25,-3 -36,-1 -28,4 -56,8 -106,-64 -1,-1 -1,-2 -1,-3 1,-2 3,-3 4,-2 14,5 31,6 48,8z"/>
    <path class="fil2" d="M2122 1376c-17,-78 -92,-57 -138,-80 62,112 93,61 138,80z"/>
    <path class="fil6" d="M2118 1371c-13,-46 -50,-53 -86,-59l0 0 0 0c-14,-2 -28,-4 -41,-9 40,68 66,66 93,65 11,0 22,-1 34,3zm-85 -65c40,7 80,14 93,70l0 0c0,0 0,1 -1,2 0,1 -2,2 -4,1 -13,-5 -25,-5 -37,-4 -29,1 -59,2 -103,-77 -1,-1 -1,-2 0,-3 1,-2 2,-3 4,-2 14,7 31,10 48,13l0 0z"/>
    <path class="fil2" d="M2115 1432c-14,-79 -90,-61 -135,-87 58,115 91,65 135,87z"/>
    <path class="fil6" d="M2111 1426c-11,-47 -47,-55 -83,-62 -14,-3 -28,-6 -41,-11 37,69 64,69 90,69 11,0 22,0 34,4zm-82 -68c39,8 80,17 90,73l0 0c0,1 0,1 -1,2 -1,2 -2,2 -4,2 -13,-7 -25,-7 -37,-7 -29,0 -59,0 -100,-81 0,-1 0,-2 0,-3 1,-2 3,-2 5,-1 13,7 30,11 47,15z"/>
    <path class="fil2" d="M2103 1490c-9,-85 -91,-71 -136,-101 52,125 91,75 136,101z"/>
    <path class="fil6" d="M2099 1484c-8,-51 -46,-62 -83,-72 -15,-5 -30,-9 -43,-16 34,77 62,79 90,81 12,1 24,2 36,7zm-81 -79c40,12 82,24 88,85 0,0 0,1 0,2 -1,1 -3,2 -5,1 -13,-8 -25,-9 -38,-10 -31,-2 -62,-4 -99,-93l0 0c-1,-1 -1,-2 0,-3 1,-2 3,-2 4,-1 14,9 32,14 50,19z"/>
    <path class="fil2" d="M2086 1545c-5,-85 -87,-75 -132,-107 47,127 88,79 132,107z"/>
    <path class="fil6" d="M2085 1536c-8,-51 -46,-62 -84,-72 -15,-5 -29,-9 -42,-16 34,77 62,79 90,81 12,1 23,2 36,7zm-82 -79c41,12 83,24 89,85 0,0 0,1 -1,2 0,1 -2,2 -4,1 -13,-8 -26,-9 -38,-10 -31,-2 -63,-4 -100,-93l0 0c0,-1 0,-2 0,-3 1,-2 3,-2 5,-1 14,9 31,14 49,19z"/>
    <path class="fil2" d="M2049 1593c3,-85 -80,-83 -121,-119 35,131 80,87 121,119z"/>
    <path class="fil6" d="M2046 1587c-1,-52 -37,-68 -73,-84 -14,-6 -28,-12 -40,-20 24,80 51,86 79,92 11,2 23,5 34,12zm-70 -89c39,17 78,35 76,95 0,1 0,2 0,2 -1,1 -3,2 -5,1 -12,-10 -24,-12 -37,-15 -30,-6 -61,-13 -85,-106l0 0c-1,-1 0,-2 0,-3 2,-1 4,-1 5,0 12,11 29,18 46,26z"/>
    <path class="fil2" d="M2018 1641c6,-88 -81,-89 -122,-128 32,138 80,93 122,128z"/>
    <path class="fil6" d="M2015 1635c1,-54 -36,-72 -73,-90 -14,-7 -29,-14 -41,-23 22,85 50,92 79,99 11,3 23,6 35,14zm-70 -96c40,19 80,39 76,102l0 0c0,1 0,1 -1,2 -1,1 -3,1 -4,0 -12,-10 -25,-13 -38,-16 -31,-8 -63,-15 -85,-113l0 0c-1,-1 0,-2 0,-3 2,-1 4,-1 5,0 12,12 30,20 47,28z"/>
    <path class="fil2" d="M1986 1697c14,-87 -72,-95 -111,-137 20,140 73,99 111,137z"/>
    <path class="fil6" d="M1984 1691c5,-54 -30,-75 -65,-95 -14,-9 -28,-17 -39,-27 14,86 42,96 70,105 11,4 23,8 34,17zm-62 -101c38,23 77,46 68,108l0 0c-1,1 -1,1 -1,2 -2,1 -4,1 -5,0 -11,-11 -24,-16 -36,-20 -31,-10 -61,-20 -76,-120 0,-1 1,-2 1,-3 2,-1 4,-1 5,1 11,12 28,22 44,32z"/>
    <path class="fil2" d="M1948 1743c18,-86 -68,-95 -103,-140 11,141 67,100 103,140z"/>
    <path class="fil6" d="M1946 1737c8,-53 -25,-74 -58,-96 -14,-9 -28,-18 -39,-29 9,87 36,97 63,106 12,5 23,9 34,19zm-55 -101c36,23 73,47 60,108l0 0c0,1 0,1 -1,2 -1,1 -3,1 -4,-1 -11,-12 -24,-16 -36,-21 -30,-11 -60,-21 -68,-121l0 0c0,-1 0,-2 1,-2 1,-2 3,-1 4,0 11,14 28,24 44,35z"/>
   </g>
   <g>
    <path class="fil0" d="M1004 1968c86,-63 232,-63 373,-68 89,-3 184,-8 272,-23 553,-99 627,-808 253,-1266"/>
    <path class="fil6" d="M1010 1977c-5,3 -11,2 -15,-3 -3,-4 -2,-11 2,-15 83,-60 216,-64 349,-69 10,0 20,0 31,-1 44,-1 89,-3 136,-7 45,-3 90,-8 134,-16 0,0 0,0 1,0 104,-19 191,-60 261,-117 90,-74 152,-175 185,-290 33,-116 38,-246 15,-377 -29,-162 -94,-312 -208,-452 -3,-4 -3,-11 2,-15 4,-4 11,-3 15,2 116,142 182,296 212,461 24,135 19,268 -16,387 -34,119 -98,224 -192,301 -72,59 -163,101 -271,121 0,0 0,0 -1,0 -44,8 -90,13 -136,17 -45,3 -92,5 -136,7 -10,0 -21,0 -31,1 -130,4 -260,8 -337,65z"/>
    <path class="fil0" d="M2011 1968c-86,-63 -232,-63 -374,-68 -88,-3 -183,-8 -271,-23 -553,-99 -628,-808 -253,-1266"/>
    <path class="fil6" d="M2017 1959c5,4 6,11 2,15 -3,5 -10,6 -14,3 -78,-57 -207,-61 -337,-65 -11,-1 -21,-1 -31,-1 -45,-2 -91,-4 -137,-7 -46,-4 -92,-9 -136,-17 0,0 -1,0 -1,0 -108,-20 -198,-62 -270,-121 -94,-77 -158,-182 -193,-301 -34,-119 -39,-252 -15,-387 29,-165 103,-331 219,-474 4,-4 11,-5 15,-1 5,3 6,10 2,15 -114,139 -186,302 -215,464 -24,131 -19,261 15,377 33,115 94,216 185,290 70,57 157,98 261,117 0,0 1,0 1,0 43,8 89,13 134,16 46,4 92,6 136,7 10,1 21,1 30,1 134,5 267,9 349,69z"/>
   </g>
   <g>
    <path class="fil2" d="M1292 1801l20 0 0 152 -20 0 0 -152zm143 0l21 0 0 152 -21 0 0 -152zm-95 0l20 0 0 152 -20 0 0 -152zm47 0l21 0 0 152 -21 0 0 -152zm-143 0l21 0 0 152 -21 0 0 -152zm382 0l21 0 0 152 -21 0 0 -152zm-47 0l20 0 0 152 -20 0 0 -152zm143 0l21 0 0 152 -21 0 0 -152zm-191 0l21 0 0 152 -21 0 0 -152zm143 0l21 0 0 152 -21 0 0 -152zm-191 0l21 0 0 152 -21 0 0 -152z"/>
    <path class="fil6" d="M1230 1799l35 0 2 0 0 2 0 152 0 2 -2 0 -35 0 -1 0 0 -2 0 -152 0 -2 1 0zm33 4l-31 0 0 148 31 0 0 -148zm446 -4l34 0 2 0 0 2 0 152 0 2 -2 0 -34 0 -2 0 0 -2 0 -152 0 -2 2 0zm32 4l-30 0 0 148 30 0 0 -148zm-80 -4l34 0 2 0 0 2 0 152 0 2 -2 0 -34 0 -2 0 0 -2 0 -152 0 -2 2 0zm32 4l-30 0 0 148 30 0 0 -148zm-80 -4l34 0 2 0 0 2 0 152 0 2 -2 0 -34 0 -2 0 0 -2 0 -152 0 -2 2 0zm32 4l-30 0 0 148 30 0 0 -148zm-80 -4l34 0 2 0 0 2 0 152 0 2 -2 0 -34 0 -2 0 0 -2 0 -152 0 -2 2 0zm33 4l-31 0 0 148 31 0 0 -148zm-81 -4l35 0 2 0 0 2 0 152 0 2 -2 0 -35 0 -1 0 0 -2 0 -152 0 -2 1 0zm33 4l-31 0 0 148 31 0 0 -148zm-80 -4l34 0 2 0 0 2 0 152 0 2 -2 0 -34 0 -2 0 0 -2 0 -152 0 -2 2 0zm32 4l-31 0 0 148 31 0 0 -148zm-80 -4l34 0 2 0 0 2 0 152 0 2 -2 0 -34 0 -2 0 0 -2 0 -152 0 -2 2 0zm32 4l-30 0 0 148 30 0 0 -148zm-80 -4l34 0 2 0 0 2 0 152 0 2 -2 0 -34 0 -2 0 0 -2 0 -152 0 -2 2 0zm32 4l-30 0 0 148 30 0 0 -148zm-80 -4l34 0 2 0 0 2 0 152 0 2 -2 0 -34 0 -2 0 0 -2 0 -152 0 -2 2 0zm32 4l-30 0 0 148 30 0 0 -148zm-80 -4l34 0 2 0 0 2 0 152 0 2 -2 0 -34 0 -2 0 0 -2 0 -152 0 -2 2 0zm33 4l-31 0 0 148 31 0 0 -148z"/>
   </g>
   <g>
    <g>
     <polygon class="fil1" points="1150,567 1172,565 1152,586 1173,588 1150,605 1170,612 1145,624 1161,635 1136,642 1149,657 1124,659 1133,677 1109,673 1114,693 1093,684 1094,706 1076,692 1071,715 1057,696 1049,720 1039,697 1026,719 1022,694 1006,713 1007,686 987,702 994,675 972,687 984,661 962,668 978,644 956,646 976,625 955,623 978,606 958,599 983,587 967,576 992,569 979,554 1004,553 995,534 1018,538 1013,518 1035,527 1034,505 1052,519 1056,496 1070,515 1079,492 1089,514 1101,492 1106,517 1122,498 1121,525 1141,509 1134,536 1156,524 1144,550 1166,543 "/>
     <polygon class="fil9" points="1139,574 1158,572 1140,590 1159,592 1139,607 1155,613 1134,623 1148,633 1126,639 1137,652 1115,654 1123,670 1102,666 1106,684 1087,675 1088,695 1072,682 1068,702 1056,685 1048,705 1040,685 1029,703 1026,681 1012,697 1013,674 996,688 1002,664 984,674 994,652 975,658 989,637 970,639 987,621 969,619 989,604 972,598 994,588 980,578 1002,572 991,559 1013,558 1005,542 1026,545 1021,527 1040,536 1040,516 1056,529 1060,509 1072,526 1079,506 1088,526 1099,508 1102,530 1116,514 1115,537 1132,523 1126,547 1144,537 1134,560 1153,553 "/>
    </g>
    <g>
     <polygon class="fil1" points="1063,638 1086,630 1069,657 1092,655 1071,677 1093,681 1069,699 1089,707 1063,720 1080,733 1054,739 1068,757 1042,757 1052,778 1027,772 1033,796 1010,785 1011,810 992,793 988,819 973,798 964,823 955,798 941,822 937,793 920,814 921,784 901,801 907,771 885,784 897,754 875,762 891,735 869,738 889,715 867,712 891,693 871,685 897,673 880,659 906,653 892,636 918,635 908,614 933,620 928,596 950,607 949,582 968,599 972,573 987,594 996,569 1006,594 1019,571 1023,599 1041,578 1039,608 1059,591 1053,621 1075,609 "/>
     <polygon class="fil9" points="1052,647 1072,641 1057,664 1077,662 1059,682 1078,684 1057,700 1075,707 1052,718 1067,730 1044,736 1056,751 1033,752 1041,770 1020,765 1024,785 1004,775 1005,797 988,782 985,804 972,785 964,806 956,784 944,804 940,779 926,797 927,771 910,785 916,759 897,770 908,745 888,751 903,728 883,730 901,711 882,708 903,692 885,685 908,674 893,662 916,656 904,641 927,641 919,622 941,627 936,607 956,617 955,595 972,610 976,588 988,607 996,586 1005,608 1016,588 1020,613 1034,595 1033,621 1050,607 1044,633 1063,622 "/>
    </g>
    <g>
     <polygon class="fil1" points="974,740 996,727 984,759 1008,752 991,780 1014,779 993,803 1016,807 992,826 1012,836 986,849 1004,864 977,870 992,890 965,889 975,913 950,906 956,932 932,918 933,947 914,927 909,956 894,931 885,959 874,930 860,956 855,924 838,946 839,913 818,931 825,897 802,910 814,879 791,886 808,857 784,859 805,835 782,830 807,811 786,801 812,789 794,773 821,767 807,748 833,748 823,724 849,732 843,705 866,719 865,691 885,710 889,682 905,706 914,679 924,708 938,682 943,714 961,691 960,725 980,707 "/>
     <polygon class="fil9" points="965,752 984,741 974,768 994,762 979,787 1000,786 981,807 1001,811 980,827 998,836 975,847 991,861 966,866 979,883 955,883 964,903 941,897 946,919 926,907 927,931 909,914 906,938 892,916 884,940 875,914 864,936 859,909 844,927 845,899 828,914 833,885 814,896 825,869 804,875 819,851 799,852 817,831 797,827 819,810 800,801 824,790 808,777 832,772 819,754 843,755 834,734 857,741 852,718 873,730 872,706 889,724 893,699 907,721 914,698 923,723 935,701 939,729 954,710 953,739 971,724 "/>
    </g>
    <g>
     <polygon class="fil1" points="901,854 921,834 917,871 940,857 929,891 954,884 938,914 963,913 942,939 967,945 943,965 965,976 939,989 959,1006 931,1013 948,1035 919,1034 933,1060 904,1052 913,1082 887,1066 890,1097 867,1075 865,1107 846,1080 839,1110 825,1078 812,1106 804,1071 787,1095 786,1059 765,1078 770,1042 747,1055 757,1021 733,1028 749,998 724,999 744,973 720,968 744,948 721,936 748,923 727,906 756,899 738,877 767,878 754,852 782,860 773,831 800,846 796,815 819,837 821,805 840,833 848,802 862,834 874,806 882,841 899,817 "/>
     <polygon class="fil9" points="895,869 912,852 908,884 928,872 919,902 940,895 926,922 948,921 930,944 952,948 930,966 950,976 926,988 944,1003 919,1008 934,1028 908,1027 919,1049 894,1042 902,1067 879,1053 881,1080 861,1061 859,1087 843,1063 837,1089 825,1061 814,1085 807,1054 793,1075 792,1043 774,1060 778,1029 758,1040 767,1011 746,1017 760,990 738,991 756,969 735,964 756,946 736,936 760,924 742,909 768,904 753,885 778,886 767,863 792,870 785,845 808,859 805,833 825,852 827,825 843,849 850,824 862,851 872,828 879,858 893,837 "/>
    </g>
    <g>
     <polygon class="fil1" points="800,1002 807,975 823,1007 834,983 845,1018 861,998 865,1032 885,1017 882,1050 906,1041 897,1071 922,1068 907,1094 934,1097 914,1118 940,1127 916,1142 941,1156 913,1165 937,1185 907,1187 927,1211 895,1205 911,1233 880,1220 891,1250 862,1231 867,1261 841,1236 840,1266 818,1236 812,1264 796,1231 784,1255 774,1221 758,1241 754,1206 734,1221 736,1188 713,1197 722,1167 697,1171 711,1145 685,1142 705,1121 678,1112 703,1097 677,1082 705,1073 682,1054 712,1052 692,1028 723,1033 707,1006 738,1018 728,989 757,1008 752,977 778,1002 778,973 "/>
     <polygon class="fil9" points="804,1018 809,995 823,1023 833,1002 842,1032 856,1015 859,1045 877,1032 875,1061 895,1053 887,1079 909,1076 896,1100 919,1102 901,1121 924,1128 902,1142 924,1154 900,1162 919,1179 893,1180 910,1201 882,1196 895,1219 869,1208 878,1233 852,1217 857,1242 834,1221 834,1246 815,1220 810,1244 795,1216 786,1236 777,1207 763,1224 759,1194 742,1207 744,1178 724,1186 731,1159 709,1162 722,1139 699,1136 717,1118 694,1110 716,1097 694,1084 719,1076 699,1060 726,1058 709,1038 736,1042 723,1019 750,1030 741,1005 766,1022 762,996 784,1018 785,993 "/>
    </g>
    <g>
     <polygon class="fil1" points="812,1163 812,1134 836,1164 843,1137 861,1170 874,1147 885,1181 903,1162 907,1197 929,1182 926,1216 952,1207 941,1237 970,1234 953,1261 983,1264 960,1285 990,1295 963,1310 991,1326 960,1333 986,1355 952,1355 974,1381 939,1374 957,1403 922,1389 934,1419 902,1399 907,1430 878,1403 877,1433 854,1403 847,1430 829,1397 816,1420 805,1386 787,1405 783,1370 761,1385 764,1351 738,1360 748,1330 720,1332 737,1306 707,1303 730,1282 700,1272 727,1257 699,1241 730,1234 704,1212 738,1212 716,1186 750,1193 733,1164 768,1178 756,1148 788,1168 783,1137 "/>
     <polygon class="fil9" points="818,1179 819,1154 840,1180 846,1157 861,1186 872,1165 882,1195 897,1178 901,1209 920,1197 918,1226 940,1218 931,1245 956,1243 941,1266 966,1269 946,1288 972,1297 948,1310 972,1323 944,1330 966,1348 937,1348 955,1370 925,1364 939,1388 910,1376 919,1402 892,1384 896,1410 872,1388 871,1413 850,1387 844,1410 829,1381 818,1402 808,1371 792,1388 789,1358 769,1370 772,1341 750,1349 759,1322 734,1324 749,1301 723,1298 743,1279 718,1270 742,1257 718,1244 746,1237 724,1219 753,1219 735,1197 765,1203 751,1179 780,1191 770,1165 798,1183 794,1157 "/>
    </g>
    <g>
     <polygon class="fil1" points="855,1314 856,1283 881,1315 888,1286 906,1321 920,1296 931,1333 949,1313 953,1348 977,1334 973,1368 1000,1359 989,1390 1018,1388 1001,1415 1032,1419 1008,1440 1039,1450 1011,1466 1040,1482 1008,1490 1035,1512 1000,1513 1022,1539 986,1532 1004,1562 969,1547 981,1579 947,1557 953,1589 923,1562 922,1593 898,1561 890,1589 872,1555 859,1579 847,1543 829,1563 825,1527 802,1542 805,1508 779,1517 789,1486 760,1488 777,1461 747,1457 770,1436 739,1426 768,1410 738,1394 770,1386 744,1364 779,1363 756,1337 792,1344 774,1314 810,1329 798,1297 831,1318 826,1287 "/>
     <polygon class="fil9" points="862,1330 863,1304 884,1331 890,1307 906,1337 918,1316 928,1347 944,1330 947,1361 968,1348 965,1379 988,1371 978,1399 1004,1397 988,1421 1015,1424 994,1443 1020,1452 995,1465 1020,1479 992,1486 1014,1505 984,1505 1003,1528 971,1521 986,1546 956,1534 966,1560 937,1542 942,1569 916,1546 915,1572 894,1545 888,1569 872,1539 861,1560 851,1529 834,1546 831,1515 811,1528 814,1497 790,1505 800,1477 774,1479 790,1455 763,1452 784,1433 758,1424 783,1411 758,1397 787,1389 764,1371 795,1370 776,1348 807,1354 792,1330 823,1342 813,1316 841,1334 837,1307 "/>
    </g>
    <g>
     <polygon class="fil1" points="907,1470 905,1435 936,1468 942,1436 966,1473 979,1444 995,1484 1014,1459 1022,1499 1047,1480 1047,1519 1076,1507 1067,1543 1100,1537 1083,1570 1119,1571 1094,1598 1130,1606 1100,1626 1135,1642 1099,1655 1132,1677 1092,1681 1121,1709 1079,1704 1102,1736 1060,1724 1077,1758 1037,1737 1047,1773 1010,1745 1012,1780 981,1747 976,1780 951,1742 939,1772 922,1732 903,1756 895,1716 870,1735 870,1696 841,1709 850,1672 817,1678 834,1646 799,1644 823,1618 787,1609 818,1589 783,1573 818,1561 786,1539 825,1534 797,1507 838,1511 815,1479 857,1492 840,1457 880,1478 871,1442 "/>
     <polygon class="fil9" points="917,1488 915,1458 942,1487 946,1459 968,1491 978,1466 993,1500 1010,1479 1017,1514 1038,1498 1038,1532 1064,1521 1056,1554 1085,1549 1070,1578 1100,1579 1078,1603 1109,1610 1082,1628 1112,1641 1080,1652 1108,1671 1073,1675 1097,1698 1061,1694 1080,1721 1044,1710 1058,1739 1024,1721 1032,1751 1001,1727 1002,1757 976,1728 971,1757 950,1724 939,1750 924,1715 908,1736 900,1701 879,1718 879,1683 853,1694 861,1661 833,1667 848,1638 817,1637 839,1613 808,1605 835,1587 806,1574 837,1563 810,1544 844,1541 820,1518 856,1521 837,1495 873,1505 859,1477 893,1494 885,1464 "/>
    </g>
   </g>
  </g>
 </g>
</svg>
